<?xml version="1.0" standalone="no"?>
<!DOCTYPE svg PUBLIC "-//W3C//DTD SVG 1.1//EN" "http://www.w3.org/Graphics/SVG/1.1/DTD/svg11.dtd">
<svg xmlns="http://www.w3.org/2000/svg">
<metadata>Copyright (C) 2017 by original authors @ fontello.com</metadata>
<defs>
<font id="fontello" horiz-adv-x="1000" >
<font-face font-family="fontello" font-weight="400" font-stretch="normal" units-per-em="1000" ascent="850" descent="-150" />
<missing-glyph horiz-adv-x="1000" />
<glyph glyph-name="arrow" unicode="&#xe800;" d="M1924 817c-17 17-39 17-50 0s-16-38 0-49l377-377h-2196c-17 0-33-16-33-33s16-38 33-38h2191l-388-388c-16-16-16-38 0-49 5-6 16-11 27-11s17 5 28 11l470 475-459 459z" horiz-adv-x="2404" />

<glyph glyph-name="quote" unicode="&#xe801;" d="M426 801c-38 22-87 33-142 33-147 0-235-71-262-203 0-185 98-278 300-278 0-71-27-153-82-246-21-33-60-66-103-110s-71-76-71-103c5-17 16-22 38-22 60 0 136 44 235 131 98 87 169 191 207 312 22 65 33 131 33 191 0 142-49 240-153 295z m645 0c-44 22-93 33-147 33-148 0-235-66-263-203 0-185 99-278 301-278 0-71-28-153-82-246-22-33-60-66-104-110s-71-76-71-103c5-17 16-22 38-22 60 0 137 44 235 131 99 87 170 191 208 312 22 65 33 131 33 191 5 142-44 240-148 295z" horiz-adv-x="1240" />

<glyph glyph-name="arrow1" unicode="&#xe802;" d="M3172 816c-8 8-25 17-34 17-9 0-17-9-26-17-17-26-17-52 0-61l345-345h-3371c-26 0-43-17-43-43 0-17 17-43 43-43h3362l-353-353c-9-9-17-26-17-35 0-8 8-17 17-26 8-8 17-17 34-17 9 0 18 0 26 9 0 0 9 0 9 0l448 457 9 8-449 449z" horiz-adv-x="3638" />

<glyph glyph-name="flag" unicode="&#xe803;" d="M619 450l233 234c3 3 7 12 3 15-3 6-9 10-15 10h-406v18c0 28-22 49-49 49h-342v46c0 10-6 16-15 16s-16-6-16-16v-64-489-391c0-10 7-16 16-16s15 6 15 16v378h360v-18c0-28 22-49 49-49h391c6 0 12 3 16 9 3 6 0 12-4 15l-236 237z m-216 243v-406h-360v455h342c9 0 18-6 18-18v-31z m49-471c-9 0-18 7-18 19v34 403h369l-218-219c-3-3-3-6-3-12s3-9 3-12l218-219h-351z" horiz-adv-x="871" />

<glyph glyph-name="tel" unicode="&#xe804;" d="M674 835h-455c-28 0-50-22-50-50v-877c0-27 22-49 50-49h455c28 0 49 22 49 49v877c0 28-21 50-49 50z m-471-160h489v-588h-489v588z m16 129h455c9 0 18-6 18-19v-83h-489v83c0 10 6 19 16 19z m455-914h-455c-10 0-19 6-19 18v148h489v-148c3-9-6-18-15-18z m-259 849h65c9 0 15 6 15 16s-6 15-15 15h-65c-9 0-15-6-15-15s6-16 15-16z m31-717c-27 0-49-21-49-49s22-49 49-49 49 21 49 49-21 49-49 49z m0-64c-9 0-18 6-18 18s6 19 18 19 19-7 19-19-6-18-19-18z m213 406c0 117-96 209-210 209s-212-92-212-209c0-59 25-111 62-148l0 0 15-12c0 0 0 0 0 0 9-6 18-12 28-19 0 0 3-3 3-3 9-6 18-9 30-12 0 0 4 0 4-3 9-3 21-6 30-9 0 0 3 0 3 0 13-3 22-3 34-3 13 0 22 0 34 3 0 0 3 0 3 0 12 3 22 6 31 9 0 0 3 0 3 3 9 3 22 9 31 12 0 0 3 3 3 3 9 7 18 13 28 19 0 0 0 0 0 0l15 12 0 0c40 37 65 89 65 148z m-213 178c99 0 179-80 179-178 0-52-22-99-56-129-18 9-40 18-64 24 0 3 0 10 0 13 0 3 3 9 6 15 3 9 9 18 12 31 6 12 9 24 9 37 0 6 0 12-3 15l3 15c7 40-9 71-43 84h0c-3 0-6 3-12 3-12 3-40 9-49 18l-9 6-10-3c-12-3-12-15-12-24 0-4 0-4 0-7-31-15-43-43-34-77l3-15c-3-3-3-9-3-15 0-10 3-25 9-37 0-13 7-22 13-31 3-6 6-12 6-15 0-3 0-10 0-13-25-6-46-12-65-24-34 34-55 80-55 129-3 98 77 178 175 178z m96-329c-7-3-13-9-19-12 0 0 0 0 0 0-46-22-101-22-151 0 0 0 0 0 0 0-6 3-12 6-18 9 0 0 0 0-3 0 12 6 31 12 49 15 12 4 22 13 22 25 0 6 0 12 0 15 0 13-7 22-10 31-3 6-6 16-9 22l0 6c-3 9-6 18-9 28l6 6-6 31c-3 24 3 36 25 46 6 3 9 9 12 18 12-6 28-9 43-12 3 0 9-3 9-3 6-3 31-9 25-46l-6-31 6-6c0-6-3-16-6-25l0-6c0-6-3-15-10-22-6-9-9-18-9-27 0-6 0-13 0-16 0-12 9-24 22-24 9-10 27-16 37-22 3 0 3 0 0 0z" horiz-adv-x="871" />

<glyph glyph-name="mail" unicode="&#xe805;" d="M449 161h-387l230 221 37-37c22-18 46-30 74-30 28 0 52 9 74 30l292 284v-210c0-9 6-15 16-15s15 9 15 15v216c0 12-6 24-12 30 0 0 0 0 0 0 0 0 0 0 0 0-9 10-19 13-34 13h-699c-12 0-24-3-33-13 0 0 0 0 0 0 0 0 0 0 0 0-10-9-13-18-13-30v-456c0-12 6-24 13-30 0 0 0 0 0 0 0 0 0 0 0 0 9-10 18-13 33-13h397c10 0 16 6 16 16s-9 9-19 9z m-409 21v447l231-222-231-225z m419 188c-31-28-77-28-105 0l-292 277h686l-289-277z m390-83l-43 43c-18 19-46 19-64 0l-43-43-185-185c0 0 0 0 0 0 0-3-3-3-3-6l-43-129c-3-6 0-12 3-16 3-3 6-3 12-3 3 0 3 0 6 0l130 43c0 0 0 0 0 0 3 0 3 4 6 4 0 0 0 0 0 0l184 184 43 43c0 0 0 0 0 0 13 19 13 50-3 65z m-317-212l43-16 16-43-86-28 27 87z m83-40l-12 40c0 3-6 9-9 9l-40 12 157 157 31-31 30-30-157-157z m213 209l-31-31-31 31-31 31 31 30c6 7 16 7 22 0l43-43c0-3 0-12-3-18z" horiz-adv-x="871" />

<glyph glyph-name="check" unicode="&#xe806;" d="M292 78l-267 271c-19 18-19 46 0 64 18 19 46 19 64 0l203-206 480 455c19 19 47 16 65 0 18-18 15-46 0-64l-545-520z" horiz-adv-x="871" />

<glyph glyph-name="del" unicode="&#xe807;" d="M499 361l347 372c16 19 16 46-3 65-18 18-49 15-64-3l-342-366-342 366c-18 18-46 21-64 3-19-19-22-46-3-65l344-372-344-373c-19-18-16-49 3-64 9-9 21-13 31-13 12 0 24 7 33 16l342 366 342-366c9-9 21-16 33-16 13 0 22 4 31 13 19 18 19 46 3 64l-347 373z" horiz-adv-x="871" />

<glyph glyph-name="txt" unicode="&#xe808;" d="M458 836h-395c-28 0-53-24-53-52v-865c0-27 25-52 53-52h583c28 0 52 25 52 52v678l-240 239z m11-59l170-170h-153c-10 0-17 7-17 17v153z m194-858c0-10-7-17-17-17h-583c-11 0-18 7-18 17v865c0 10 7 17 18 17h375v-177c-4-27 20-52 48-52h177v-653z m-538 244l0-53h14c0 14 3 21 7 28 3 7 10 11 21 11h10v-111c0-4 0-7 0-11 0-3-3-3-3-7 0-3-4-3-4-3-3 0-3 0-7 0v-14h70v14l-18 0c0 0 0 3 0 3 0 0 0 4 0 4 0 3 0 3 0 7 0 3 0 3 0 7v107l11 0c10 0 17-3 21-10 3-7 7-14 7-28h13l0 52h-142z m295-136c-3 4-3 7-7 11l-45 55 21 31c3 4 7 7 10 11 4 3 7 7 7 7 4 3 7 3 7 3 4 0 7 4 7 4v14h-52v-18l17 0v0c0 0-3-3-3-3 0 0-3-4-3-4 0 0-4-3-4-3 0 0-3-4-3-7l-18-24h0l-21 27c0 4-3 4-3 4 0 0 0 3 0 3 0 4 0 4 3 4 4 0 7 0 11 0v14h-70v-18l11 0c0-3 3-7 3-10 4-4 4-7 7-11l38-48-27-35c-7-7-11-14-14-17-4 3-7 0-11 0v-14h52v14l-17 0v0c0 0 3 3 3 3 0 0 4 4 4 4 0 0 3 3 3 3s4 4 4 7l21 28h0l24-31c0-4 4-4 4-7 0-4 0-4 0-4 0-3 0-3-4-3-3 0-7 0-10 0v-14h69v14l-10 0c0 3-4 7-4 10z m18 83h13c0 14 4 21 7 28 4 7 11 11 21 11h11v-111c0-4 0-7 0-11s-4-3-4-7c0 0-3-3-7-3-3 0-3 0-7 0v-14h70v14l-18 0c0 0 0 3 0 3 0 0 0 4 0 4 0 3 0 3 0 7 0 3 0 3 0 7v107l11 0c10 0 17-3 21-10 3-7 7-14 7-28h13l0 52h-142l4-49z" horiz-adv-x="712" />

<glyph glyph-name="doc" unicode="&#xe809;" d="M462 836h-399c-28 0-53-24-53-52v-868c0-28 25-52 53-52h586c28 0 52 24 52 52v681l-239 239z m10-59l170-170h-152c-11 0-18 7-18 17v153z m195-861c0-10-7-17-18-17h-586c-11 0-18 7-18 17v868c0 10 7 17 18 17h375v-177c0-27 24-52 52-52h177v-656z m-410 205c-3 7-7 10-10 17-4 4-11 11-18 14-10 4-17 4-24 7-7 4-17 4-28 4l-69 0v-18l17 0c0 0 0-3 0-3 0 0 0-4 0-4 0-3 0-3 0-7 0-3 0-3 0-7v-90c0-3 0-7 0-10s-3-7-3-7c0 0-4-4-7-4-4 0-4 0-7 0v-14h66c10 0 20 0 27 4 11 3 18 7 25 10s14 11 17 14c4 7 11 11 11 17 3 7 6 14 6 21 0 7 4 14 4 21 0 7 0 14-4 21 0 0 0 7-3 14z m-31-66c-4-7-4-14-11-21-3-7-10-10-14-14-7-3-13-3-20-3 0 0-4 0-4 0-3 0-3 0-7 0-3 0-3 0-7 0-3 0-3 0-3 0 0 0 0 3 0 3 0 0 0 4 0 4 0 3 0 3 0 7 0 3 0 3 0 7v90c0 3 0 7 0 10 0 4 3 4 3 7s4 4 7 4c4 0 4 0 7 0 7 0 14-4 21-4s10-7 17-14c4-7 7-14 11-21s3-17 3-31c0-10 0-17-3-24z m212 66c-4 7-7 14-11 17s-10 11-14 14c-7 4-14 7-21 11-7 3-17 3-24 3-10 0-17 0-24-3-7-4-14-7-21-11s-10-10-17-14-11-10-14-17c-4-7-7-14-7-21 0-7-4-14-4-21 0-7 0-14 4-21 0-7 3-14 7-20s7-14 10-18c4-7 11-10 14-14 7-3 14-7 21-10 7-4 17-4 28-4 10 0 17 0 24 4 7 3 14 7 21 10 7 4 10 11 17 14s7 11 11 18c3 6 6 13 6 20 0 7 4 14 4 21s0 14-4 21c-3 7-3 14-6 21z m-28-59c0-4 0-11-4-14s-3-10-7-14c-3-3-3-7-7-10-3-4-7-7-10-7s-10-4-14-4c-7 0-10 0-17 4s-11 3-14 7c-4 3-7 7-11 14-3 3-3 10-7 13 0 7-3 11-3 18 0 7 0 10 0 14 0 3 0 10 0 14s0 10 3 13c0 4 4 11 7 14s4 7 7 11 7 7 11 7 10 3 14 3c7 0 14-3 21-7 6-3 10-7 13-14 4-7 7-14 7-24 4-10 4-17 4-28 7 0 7-7 7-10z m62 59c-3-7-7-14-7-21 0-7-3-14-3-21 0-10 3-21 7-31 3-10 10-17 17-28s14-14 24-17c11-4 21-7 32-7 3 0 10 0 17 0 7 0 10 3 17 7 7 3 14 7 18 10 7 4 14 11 17 21l-10 10c-4-3-7-6-11-10s-7-7-14-10c-3-4-10-4-13-7-4 0-11-4-14-4-7 0-14 0-21 4-7 3-11 7-14 14-4 7-7 13-10 20-4 7-4 18-4 28 0 7 0 18 4 25 3 6 3 13 10 20 3 7 10 11 14 14s14 7 21 7c10 0 20-3 27-10 7-7 11-18 14-28h14v56h-17l0-11h0c-4 4-7 4-11 4s-7 3-10 3c-3 0-7 0-10 4-4 0-7 0-11 0-10 0-17 0-24-4-7-3-14-7-21-10s-10-11-17-14c-4-4-7-11-11-14z" horiz-adv-x="712" />

<glyph glyph-name="pdf" unicode="&#xe80a;" d="M462 836h-399c-28 0-53-21-53-48v-872c0-28 25-52 53-52h586c28 0 52 24 52 52v684l-239 236z m10-55l170-171h-152c-11 0-18 7-18 18v153z m195-865c0-10-7-17-18-17h-586c-11 0-18 7-18 17v872c0 10 7 17 18 17h378v-177c0-28 24-52 52-52h177v-660z m-413 233c-4 3-11 7-21 10-7 4-18 4-28 4l-66 0v-18l17 0c0 0 0-3 0-3 0 0 0-4 0-4 0-3 0-3 0-7 0-3 0-3 0-7v-90c0-3 0-7 0-10 0-4-3-4-3-7 0 0-4-4-7-4-4 0-4 0-7 0v-14h69v18l-20 0c0 3 0 3 0 10 0 4 0 7 0 14v21c0 0 3 0 3 0 0 0 3 0 3 0 0 0 4 0 4 0 0 0 3 0 3 0 11 0 21 3 32 7s14 7 21 14c6 3 10 10 13 17 4 7 4 14 4 21 0 10 0 17-4 24-3-3-7 0-13 4z m-18-56c0-3-3-7-7-10-3-4-7-7-10-7-4 0-11-4-18-4-3 0-3 0-7 0-3 0-3 0-3 0v52c0 4 0 7 0 11 0 3 3 3 3 7 0 0 4 3 4 3 3 0 3 0 7 0 3 0 3 0 7 0 3 0 3 0 7 0 3 0 3-3 7-3 3 0 3-4 7-7 0-4 3-7 3-11 0-3 0-7 0-14 0-6 0-10 0-17z m202 24c-4 7-7 11-14 18-4 3-11 10-18 14-7 3-14 7-24 10-7 4-17 4-28 4l-69 0v-18l17 0c0 0 0-3 0-3 0 0 0-4 0-4 0-3 0-3 0-7 0-3 0-3 0-7v-90c0-3 0-7 0-10 0-4-3-4-3-7 0 0-4-4-7-4-4 0-4 0-7 0v-14h66c10 0 21 0 31 4 10 3 17 7 24 10 7 4 14 11 18 14 3 7 10 11 10 17 4 7 7 14 7 21 0 7 3 14 3 21 0 7 0 14-3 21 0 0-3 7-3 10z m-32-66c-3-7-3-13-10-20-4-7-11-11-14-14-7-4-14-7-21-7 0 0-3 0-7 0-3 0-3 0-7 0-3 0-3 0-7 0-3 0-3 0-3 0 0 0 0 3 0 3 0 0 0 4 0 4 0 3 0 3 0 7 0 3 0 3 0 7v90c0 3 0 7 0 10 0 4 3 4 3 7 0 0 4 4 7 4 4 0 4 0 7 0 7 0 14-4 21-4 7-3 14-7 17-14 4-7 7-14 11-20 3-11 3-18 3-32 4-3 0-10 0-21z m56 91l17 0c0 0 0-4 0-4 0 0 0-3 0-3 0-4 0-4 0-7 0-4 0-4 0-7v-90c0-4 0-7 0-11 0-3-3-3-3-7 0 0-4-3-7-3-4 0-4 0-7 0v-14h69v17l-21 0c0 0 0 4 0 4 0 0 0 3 0 3 0 4 0 4 0 7 0 4 0 4 0 7v31l4 0c3 0 7 0 10 0 4 0 7 0 7-3s4-4 4-7 3-7 3-11h18v56h-18l0-21h-24v42c0 3 0 7 0 10 0 4 3 4 3 7 0 0 4 4 4 4 3 0 3 0 7 0l7 0c3 0 7 0 10 0 4 0 7-4 11-4 3-3 3-7 7-10 3-4 3-11 3-14h14l0 45h-118v-17z" horiz-adv-x="712" />

<glyph glyph-name="jpg" unicode="&#xe80b;" d="M462 840h-403c-28 0-52-25-52-52v-876c0-27 24-52 52-52h594c28 0 52 25 52 52v688l-243 240z m10-59l170-171h-156c-10 0-17 7-17 18v153z m198-869c0-10-7-17-17-17h-594c-10 0-17 7-17 17v876c0 10 7 17 17 17h379v-177c0-28 24-52 52-52h177v-664z m-500 230l18 0c0 0 0-4 0-4 0 0 0-3 0-3 0-4 0-4 0-7 0-4 0-4 0-7v-94c0-7 0-10-4-14-3-3-3-3-7-3 0 0 0 0 0 0 0 0 0 0-3 0 0 0 0 0-4 0 0 0 0 0 0 3 0 0 0 4 0 4 0 0 0 3 0 3 0 4 0 4 0 7 0 4 0 4-3 4 0 0-4 3-4 3-3 0-3 0-7 0-3 0-7 0-7 0s-3-3-7-3c0-4-3-4-3-7 0-4 0-7 0-7 0-4 0-7 3-11 4-3 4-7 7-7s7-3 11-7c3 0 7-3 14-3 7 0 14 0 20 3 7 4 11 7 14 11 4 3 7 10 11 21 3 7 3 17 3 27v70c0 3 0 7 0 10 0 4 4 4 4 7 0 0 3 4 7 4 3 0 3 0 7 0v14h-70v-14z m202 7c-7 3-14 7-21 10-7 4-18 4-28 4l-66 0v-18l17 0c0 0 0-3 0-3 0 0 0-4 0-4 0-3 0-3 0-7 0-3 0-3 0-7v-90c0-3 0-7 0-10s-3-4-3-7c0 0-4-4-7-4-4 0-4 0-7 0v-14h69v18l-20 0c0 3 0 3 0 10 0 4 0 7 0 14v21c0 0 3 0 3 0 0 0 4 0 4 0 0 0 3 0 3 0 0 0 3 0 3 0 11 0 21 3 32 7 7 3 14 7 21 14 7 3 10 10 13 17 4 7 4 14 4 21 0 10 0 17-4 24-3-7-6 0-13 4z m-18-56c0-3-3-7-7-10-3-4-7-7-10-7-4 0-11-4-18-4-3 0-3 0-6 0-4 0-4 0-4 0v52c0 4 0 7 0 11 0 3 4 3 4 7 0 0 3 3 3 3 3 0 3 0 7 0 3 0 3 0 7 0 3 0 3 0 7 0 3 0 3-3 7-3 3 0 3-4 7-7 0-4 3-7 3-11 0-3 0-7 0-14 0-6 0-13 0-17z m108 66c-7-3-14-7-21-10-7-4-10-11-17-14-4-7-7-11-11-18-3-7-7-13-7-20 0-7-3-14-3-21 0-11 3-25 7-35 3-10 10-21 17-28 7-7 14-14 24-17 11-4 21-7 35-7 7 0 14 0 21 3 7 0 10 4 17 4 4 0 11 3 14 3 4 0 11 4 14 4h4v38c0 3 0 7 0 10 0 4 0 4 3 7 0 0 4 4 4 4 3 0 3 0 6 0v14h-62v-18l17 0c0 0 0-3 0-3 0 0 0-4 0-4 0-3 0-3 0-7 0-3 0-3 0-6v-21c-3 0-3-4-7-4-3 0-7 0-10-3-3 0-7 0-10 0-4 0-7 0-7 0-7 0-14 0-21 3-7 4-11 7-14 14-4 7-7 14-11 21-3 7-3 17-3 28 0 7 0 17 3 24 4 7 4 14 11 21 3 7 10 10 14 14 7 3 14 7 21 7 7 0 10 0 14-4 3 0 10-3 13-7 4-3 7-7 11-14 3-3 3-10 7-17h14v56h-18l0-11h0c-3 7-7 11-10 11-4 0-7 3-11 3-3 0-6 4-10 4-3 0-7 0-10 0-14 0-21 0-28-4z" horiz-adv-x="712" />

<glyph glyph-name="avi" unicode="&#xe80c;" d="M462 840h-399c-28 0-53-25-53-52v-872c0-28 25-52 53-52h586c28 0 52 24 52 52v684l-239 240z m10-59l170-171h-152c-11 0-18 7-18 18v153z m195-865c0-10-7-17-18-17h-586c-11 0-18 7-18 17v872c0 10 7 17 18 17h375v-177c0-28 24-52 52-52h177v-660z m-368 108c0 3 0 3-4 7 0 3 0 3-3 7 0 3 0 3 0 3l-49 125h-17l-45-125c0-3-4-7-4-10 0-4-3-7-3-7 0-4-4-4-7-7 0 0-4 0-7 0v-18h48v18l-17 0c0 0 0 3 3 3 0 0 0 4 4 7 0 4 0 4 3 4 0 0 0 3 0 3l4 10 52 0 3-13c0-4 0-4 4-7 0-4 0-4 0-7 0-4 0-4-4-7 0 0-3-4-10-4v-14h63v25l-14 0c0 3 0 3 0 7z m-91 41l11 32c3 7 3 13 7 17 0 7 3 10 3 10h0c0-3 4-10 4-14 0-6 3-10 7-17l10-28h-42z m202 80l17 0v0c0 0-3-3-3-3 0-4-4-4-4-7 0-4 0-4-3-7 0-4 0-4 0-4l-18-48c-3-7-3-11-7-18-3-7-3-10-7-14h0c0 4-3 7-3 7 0 4-3 7-3 7 0 4-4 7-4 7 0 4-3 7-3 11l-21 52c0 3-4 7-4 7 0 3 0 7 4 7 3 0 7 3 10 3h0v14h-69v-17l14 0c0 0 0-4 0-4 0-3 0-3 0-7 0-3 0-3 3-7 0-3 0-3 4-7l55-125h21l45 125c0 4 4 7 7 11 3 3 3 7 7 7 3 3 3 3 7 3 3 0 3 0 7 0v14h-52v-7z m62 0l18 0c0 0 0-3 0-3 0 0 0-4 0-4 0-3 0-3 0-7 0-3 0-3 0-7v-90c0-3 0-7 0-10 0-4-4-4-4-7 0 0-3-4-7-4-3 0-3 0-7 0v-14h66v18l-17 0c0 0 0 3 0 3 0 0 0 4 0 4 0 3 0 3 0 7 0 3 0 3 0 7v90c0 3 0 7 0 10 0 4 3 4 3 7 0 0 4 4 4 4 3 0 3 0 7 0v14h-66v-18z" horiz-adv-x="712" />

<glyph glyph-name="flv" unicode="&#xe80d;" d="M462 843h-403c-28 0-52-24-52-52v-879c0-27 24-52 52-52h594c28 0 52 25 52 52v692l-243 239z m10-59l174-174h-156c-11 0-18 7-18 18v156z m198-872c0-10-7-17-17-17h-594c-10 0-17 7-17 17v879c0 10 7 17 17 17h382v-180c0-28 24-52 52-52h181v-664z m-517 251v-18l17 0c0 0 0-3 0-3 0 0 0-4 0-4 0-3 0-3 0-7 0-3 0-3 0-7v-90c0-3 0-7 0-10 0-4-3-4-3-7 0 0-4-4-7-4-4 0-4 0-7 0v-14h73v18l-21 0c0 0 0 3 0 3 0 0 0 4 0 4 0 3 0 3 0 7 0 3 0 3 0 7v34l3 0c4 0 7 0 11 0 3 0 7 0 7-3 3 0 3-4 3-7 0-4 4-7 4-11h14v59h-18l0-20h-24v41c0 4 0 7 0 11 0 3 3 3 3 7 0 0 4 3 4 3 3 0 3 0 7 0l7 0c3 0 7 0 10 0 4 0 7-3 11-3 3-4 3-7 7-11 3-3 3-10 3-14h14l0 45h-118z m239-139c-7-7-13-11-20-11l-32 0c0 0 0 4 0 4 0 0 0 3 0 3 0 4 0 4 0 7 0 4 0 4 0 7v90c0 4 0 7 0 11 0 3 4 3 4 7 0 0 3 3 7 3 3 0 3 0 7 0v14h-70v-17l18 0c0 0 0-4 0-4 0 0 0-3 0-3 0-4 0-4 0-7 0-4 0-4 0-7v-90c0-4 0-7 0-11 0-3-4-3-4-7 0 0-3-3-7-3-3 0-3 0-7 0v-14h129l0 55h-18c0-10 0-20-7-27z m94 41c0 4-3 7-3 11l-21 52c0 3-4 7-4 7 0 3 0 7 4 7 3 0 7 3 10 3h0v14h-69v-17l14 0c0 0 0-4 0-4s0-3 0-7c0-3 0-3 3-7 0-3 0-3 4-7l55-128h21l49 125c0 3 3 7 7 10 3 4 3 7 7 7 3 4 3 4 6 4 4 0 4 0 7 0v14h-52v-18l18 0v0c0 0-4-3-4-3 0-4-3-4-3-7 0-4 0-4-4-7 0-4 0-4 0-4l-17-48c-4-7-4-11-7-18-3-6-3-10-7-17h0c0 4-3 7-3 7 0 4-4 7-4 7-7 17-7 21-7 24z" horiz-adv-x="712" />

<glyph glyph-name="wav" unicode="&#xe80e;" d="M462 843h-396c-28 0-52-24-52-52v-868c0-28 24-52 52-52h587c28 0 52 24 52 52v684l-243 236z m10-59l170-170h-152c-11 0-18 7-18 17v153z m195-858c0-10-7-17-18-17h-583c-10 0-17 7-17 17v868c0 11 7 18 17 18h375v-177c0-28 24-52 52-52h177v-657z m-341 226c4 0 4 0 7 0v14h-52v-17l18 0v0c-4-4-4-7-7-11 0-3-4-7-4-10l-14-49c0-7-3-10-3-17 0-7-4-11-4-18h0c0 7-3 11-3 18 0 7-4 10-4 17l-27 87h-21l-21-73c0 0 0-3 0-7 0-3 0-3-3-7 0-3-4-7-4-10 0-4-3-7-3-11 0-3 0-7-4-7 0-3 0-3 0-7h0c0 4 0 7-3 11 0 3 0 7-4 7 0 3 0 3-3 7 0 3 0 3-4 7l-14 52c0 0 0 3 0 3 0 0 0 4 0 4 0 3 0 7 4 7 3 14 7 14 14 14h0v13h-70v-17l14 0c0 0 0-3 0-3 0 0 0-4 0-7 0-4 0-4 4-7 0-4 0-4 3-7l42-125h21l27 87c0 7 0 14 0 17 0 3 4 10 4 14h0c0-7 3-11 3-17 0-7 4-11 4-18l28-83h20l39 125c0 3 3 7 3 10 4 4 4 7 7 7 3 7 7 7 10 7z m129-121c0 3 0 3-4 7 0 3 0 3-3 6 0 4 0 4 0 4l-49 128h-17l-45-125c0-3-4-7-4-10 0-3-3-7-3-7 0-3-4-3-7-7-4 0-4-3-7-3v-18h49v18l-18 0c0 0 0 3 4 3 0 0 0 4 3 7 0 4 0 4 4 4 0 0 0 3 0 3l3 10 52 0 4-13c0-4 0-4 3-7 0-4 0-4 0-7 0-4 0-4-3-7 0 0-4-4-11-4v-14h63v18l-14 0c3 10 3 10 0 14z m-87 41l11 32c3 6 3 13 3 17s3 10 3 10h0c0-3 4-10 4-14 0-7 3-10 7-17l10-28h-38z m156 84l0 0 0 13h-69v-17l14 0c0 0 0-3 0-3 0-4 0-4 0-7 0-4 0-4 3-7 0-4 0-4 4-7l55-125h21l45 125c0 3 4 7 7 10 4 4 4 7 7 7 4 4 4 4 7 4 4 0 4 0 7 0v14h-52v-18l17 0v0c0 0-3-3-3-3 0-4-4-4-4-7s0-4-3-7c0-4 0-4 0-4l-17-48c-4-7-4-11-7-18-4-7-4-10-7-14h0c0 4-4 7-4 7 0 4-3 7-3 7 0 4-4 7-4 7 0 4-3 7-3 11l-21 52c0 3-4 7-4 7 0 3 0 7 4 7 3 14 7 14 10 14z" horiz-adv-x="712" />

<glyph glyph-name="amp" unicode="&#xe80f;" d="M1292 83c0 0-139-164-361-146-101 7-205 48-296 114 70 80 115 178 122 261 3 55-10 101-31 128 153 56 326 63 316-93 0-18 10-11 24 0 7 3 80 72 83 93 7 87-59 122-145 129-150 10-303-139-414-49-27 21-114-76-114-80-7-76 212-3 184-215-7-59-28-108-52-146-118 97-205 247-223 431 25 21 49 41 77 62 97 80 128 153 132 198 3 42-21 70-56 73-69 4-239-97-260-319-4-21 0-45 0-70-122-97-257-201-268-333-10-125 80-243 240-257 111-11 219 35 306 107 83-55 180-93 291-104 285-24 462 195 462 198 0 7-14 18-17 18z m-907 545c7 97 39 142 66 142 14 0 35-24 35-66 0-55-42-107-104-163 0 28 0 56 3 87z m-260-455c7 80 49 142 156 243 21-153 104-312 240-420-163-101-413-14-396 177z" horiz-adv-x="1316" />

<glyph glyph-name="arrow3" unicode="&#xe811;" d="M105 791l0 0-43 44-5 4-43-45c-2-1-3-4-3-5 0-3 1-5 3-6 2-1 5-3 7-1 1 0 2 1 2 2l26 26v-938c0-4 3-7 7-7 4 0 7 3 7 7v937l27-27c2-2 4-3 6-3 2 0 4 1 5 3 2 1 3 2 3 5 3 2 3 3 1 4z" horiz-adv-x="116" />

<glyph glyph-name="arrow4" unicode="&#xe812;" d="M793 754l0 0c-15 15-23 15-37 15-15 0-23-8-30-15-15-8-22-22-15-45 0-7 8-15 15-22l289-289h-859c-23 0-45-22-45-44 0-22 22-52 45-52h844l-296-296c-15-15-15-23-15-38 0-14 7-22 15-29 7-8 22-15 37-15 15 0 22 7 22 7l422 423-392 400z" horiz-adv-x="1274" />
</font>
</defs>
</svg>